EESchema Schematic File Version 4
EELAYER 30 0
EELAYER END
$Descr A4 11693 8268
encoding utf-8
Sheet 4 14
Title "LibreRouter - Megaboard - Power supply"
Date "2020-07-13"
Rev "1.4"
Comp "LibreRouter"
Comment1 ""
Comment2 ""
Comment3 ""
Comment4 ""
$EndDescr
Text HLabel 5350 1400 2    50   BiDi ~ 0
VCC_OUT
Text HLabel 1500 1900 0    50   BiDi ~ 0
VCC_IN
Text HLabel 9650 1600 2    50   BiDi ~ 0
5V_0
Text HLabel 9650 3300 2    50   BiDi ~ 0
5V_1
Text HLabel 9650 5300 2    50   BiDi ~ 0
5V_2
Text HLabel 4650 3300 2    50   BiDi ~ 0
3.3V_0
Text HLabel 4650 5300 2    50   BiDi ~ 0
3.3V_1
Text HLabel 1500 1400 0    50   BiDi ~ 0
POE_A
$Sheet
S 3300 3150 950  1000
U 5D42E225
F0 "3.3V_0" 50
F1 "rt7272_dcdc_3v3.sch" 50
F2 "ENABLE" I L 3300 3950 50 
F3 "3.3V" B R 4250 3300 50 
F4 "VCC" B L 3300 3300 50 
$EndSheet
$Comp
L Device:R R60
U 1 1 5D42F0F7
P 2600 3650
F 0 "R60" H 2670 3696 50  0000 L CNN
F 1 "100k" H 2670 3605 50  0000 L CNN
F 2 "LibreRouter_MegaBoard:R0402" V 2530 3650 50  0001 C CNN
F 3 "~" H 2600 3650 50  0001 C CNN
F 4 "Panasonic Electronic Components" H 2600 3650 50  0001 C CNN "Manufacturer"
F 5 "ERJ-PA2F1003X" H 2600 3650 50  0001 C CNN "Manufacturer PN"
F 6 "DigiKey" H 2600 3650 50  0001 C CNN "Supplier"
F 7 "P17236DKR-ND" H 2600 3650 50  0001 C CNN "Supplier PN"
F 8 "0402WGF1003TCE" H 2600 3650 50  0001 C CNN "ZAlt Manufacturer PN"
	1    2600 3650
	1    0    0    -1  
$EndComp
$Comp
L Device:C C90
U 1 1 5D42F1FB
P 2600 4350
F 0 "C90" H 2750 4350 50  0000 L CNN
F 1 "0.1uF, 50V" H 2650 4250 50  0000 L CNN
F 2 "LibreRouter_MegaBoard:C0402" H 2638 4200 50  0001 C CNN
F 3 "~" H 2600 4350 50  0001 C CNN
F 4 "DigiKey" H 2600 4350 50  0001 C CNN "Supplier"
F 5 "Murata Electronics" H 2600 4350 50  0001 C CNN "Manufacturer"
F 6 "GRM155R71H104KE14J" H 2600 4350 50  0001 C CNN "Manufacturer PN"
F 7 "490-13342-6-ND" H 2600 4350 50  0001 C CNN "Supplier PN"
	1    2600 4350
	1    0    0    -1  
$EndComp
Wire Wire Line
	3300 3950 2600 3950
Wire Wire Line
	2600 3950 2600 3800
Wire Wire Line
	2600 4200 2600 3950
Connection ~ 2600 3950
$Comp
L power:GND #PWR0133
U 1 1 5D42F2B8
P 2600 4600
F 0 "#PWR0133" H 2600 4350 50  0001 C CNN
F 1 "GND" H 2605 4427 50  0000 C CNN
F 2 "" H 2600 4600 50  0001 C CNN
F 3 "" H 2600 4600 50  0001 C CNN
	1    2600 4600
	1    0    0    -1  
$EndComp
Wire Wire Line
	2600 4500 2600 4600
Wire Wire Line
	3300 3300 2600 3300
Wire Wire Line
	2600 3500 2600 3300
Connection ~ 2600 3300
Wire Wire Line
	2600 3300 1850 3300
Wire Wire Line
	3300 5300 1850 5300
Wire Wire Line
	3300 5950 1850 5950
Wire Wire Line
	2600 3950 1850 3950
Text HLabel 1850 3950 0    50   Input ~ 0
3.3V_0_ENABLE
Text HLabel 1850 5950 0    50   Input ~ 0
3.3V_1_ENABLE
$Sheet
S 8250 1450 1000 1000
U 5D4FC17D
F0 "5V_0" 50
F1 "rt7272_dcdc_5v.sch" 50
F2 "ENABLE" I L 8250 2250 50 
F3 "5V" B R 9250 1600 50 
F4 "VCC" B L 8250 1600 50 
$EndSheet
Wire Wire Line
	8250 1600 6800 1600
Wire Wire Line
	8250 2250 6800 2250
Text HLabel 6800 2250 0    50   Input ~ 0
5V_0_ENABLE
$Sheet
S 8250 3150 1000 1000
U 5D4FE12B
F0 "5V_1" 50
F1 "rt7272_dcdc_5v.sch" 50
F2 "ENABLE" I L 8250 3950 50 
F3 "5V" B R 9250 3300 50 
F4 "VCC" B L 8250 3300 50 
$EndSheet
$Comp
L Device:R R18
U 1 1 5D4FE353
P 7550 3650
F 0 "R18" H 7620 3696 50  0000 L CNN
F 1 "100k" H 7620 3605 50  0000 L CNN
F 2 "LibreRouter_MegaBoard:R0402" V 7480 3650 50  0001 C CNN
F 3 "~" H 7550 3650 50  0001 C CNN
F 4 "Panasonic Electronic Components" H 7550 3650 50  0001 C CNN "Manufacturer"
F 5 "ERJ-PA2F1003X" H 7550 3650 50  0001 C CNN "Manufacturer PN"
F 6 "DigiKey" H 7550 3650 50  0001 C CNN "Supplier"
F 7 "P17236DKR-ND" H 7550 3650 50  0001 C CNN "Supplier PN"
F 8 "0402WGF1003TCE" H 7550 3650 50  0001 C CNN "ZAlt Manufacturer PN"
	1    7550 3650
	1    0    0    -1  
$EndComp
$Comp
L Device:C C100
U 1 1 5D4FE35A
P 7550 4350
F 0 "C100" H 7700 4350 50  0000 L CNN
F 1 "0.1uF, 50V" H 7600 4250 50  0000 L CNN
F 2 "LibreRouter_MegaBoard:C0402" H 7588 4200 50  0001 C CNN
F 3 "~" H 7550 4350 50  0001 C CNN
F 4 "DigiKey" H 7550 4350 50  0001 C CNN "Supplier"
F 5 "Murata Electronics" H 7550 4350 50  0001 C CNN "Manufacturer"
F 6 "GRM155R71H104KE14J" H 7550 4350 50  0001 C CNN "Manufacturer PN"
F 7 "490-13342-6-ND" H 7550 4350 50  0001 C CNN "Supplier PN"
	1    7550 4350
	1    0    0    -1  
$EndComp
Wire Wire Line
	8250 3950 7550 3950
Wire Wire Line
	7550 3950 7550 3800
Wire Wire Line
	7550 4200 7550 3950
Connection ~ 7550 3950
$Comp
L power:GND #PWR0134
U 1 1 5D4FE365
P 7550 4600
F 0 "#PWR0134" H 7550 4350 50  0001 C CNN
F 1 "GND" H 7555 4427 50  0000 C CNN
F 2 "" H 7550 4600 50  0001 C CNN
F 3 "" H 7550 4600 50  0001 C CNN
	1    7550 4600
	1    0    0    -1  
$EndComp
Wire Wire Line
	7550 4500 7550 4600
Wire Wire Line
	8250 3300 7550 3300
Wire Wire Line
	7550 3500 7550 3300
Connection ~ 7550 3300
Wire Wire Line
	7550 3300 6800 3300
Wire Wire Line
	7550 3950 6800 3950
Text HLabel 6800 3950 0    50   Input ~ 0
5V_1_ENABLE
$Sheet
S 8250 5150 1000 1000
U 5D4FEB2F
F0 "5V_2" 50
F1 "rt7272_dcdc_5v.sch" 50
F2 "ENABLE" I L 8250 5950 50 
F3 "5V" B R 9250 5300 50 
F4 "VCC" B L 8250 5300 50 
$EndSheet
Wire Wire Line
	8250 5300 6800 5300
Wire Wire Line
	8250 5950 6800 5950
Text HLabel 6800 5950 0    50   Input ~ 0
5V_2_ENABLE
Wire Wire Line
	9250 1600 9650 1600
Wire Wire Line
	9250 3300 9650 3300
Wire Wire Line
	9250 5300 9650 5300
Wire Wire Line
	4250 5300 4650 5300
Wire Wire Line
	4250 3300 4650 3300
$Comp
L Device:D_Schottky D13
U 1 1 5D502FE5
P 2150 1400
F 0 "D13" H 2150 1184 50  0000 C CNN
F 1 "MBRS540T3" H 2150 1275 50  0000 C CNN
F 2 "LibreRouter_MegaBoard:SMC" H 2150 1400 50  0001 C CNN
F 3 "~" H 2150 1400 50  0001 C CNN
F 4 "ON Semiconductor" H 2150 1400 50  0001 C CNN "Manufacturer"
F 5 "MBRS540T3G" H 2150 1400 50  0001 C CNN "Manufacturer PN"
F 6 "DigiKey" H 2150 1400 50  0001 C CNN "Supplier"
F 7 "MBRS540T3GOSDKR-ND" H 2150 1400 50  0001 C CNN "Supplier PN"
	1    2150 1400
	-1   0    0    1   
$EndComp
$Comp
L Device:D_TVS D25
U 1 1 5D5030DB
P 3600 1750
F 0 "D25" V 3554 1829 50  0000 L CNN
F 1 "SMBJ40CA" V 3645 1829 50  0000 L CNN
F 2 "LibreRouter_MegaBoard:DO-214AA" H 3600 1750 50  0001 C CNN
F 3 "~" H 3600 1750 50  0001 C CNN
F 4 "Littelfuse Inc." H 3600 1750 50  0001 C CNN "Manufacturer"
F 5 "SMBJ40CA" H 3600 1750 50  0001 C CNN "Manufacturer PN"
F 6 "DigiKey" H 3600 1750 50  0001 C CNN "Supplier"
F 7 "SMBJ40CALFDKR-ND" H 3600 1750 50  0001 C CNN "Supplier PN"
	1    3600 1750
	0    1    1    0   
$EndComp
$Comp
L Device:D_Schottky D2
U 1 1 5D503196
P 4400 1750
F 0 "D2" V 4354 1829 50  0000 L CNN
F 1 "SS14" V 4445 1829 50  0000 L CNN
F 2 "LibreRouter_MegaBoard:DO214AC" H 4400 1750 50  0001 C CNN
F 3 "~" H 4400 1750 50  0001 C CNN
F 4 "ON Semiconductor" H 4400 1750 50  0001 C CNN "Manufacturer"
F 5 "SS14" H 4400 1750 50  0001 C CNN "Manufacturer PN"
F 6 "DigiKey" H 4400 1750 50  0001 C CNN "Supplier"
F 7 "SS14CT-ND" H 4400 1750 50  0001 C CNN "Supplier PN"
	1    4400 1750
	0    1    1    0   
$EndComp
$Comp
L Device:CP C76
U 1 1 5D503338
P 5100 1750
F 0 "C76" H 5250 1750 50  0000 L CNN
F 1 "1000uF, 35V" H 5150 1650 50  0000 L CNN
F 2 "LibreRouter_MegaBoard:E3,5-10" H 5138 1600 50  0001 C CNN
F 3 "~" H 5100 1750 50  0001 C CNN
F 4 "DigiKey" H 5100 1750 50  0001 C CNN "Supplier"
F 5 "Rubycon" H 5100 1750 50  0001 C CNN "Manufacturer"
F 6 "35PX1000MEFC10X20" H 5100 1750 50  0001 C CNN "Manufacturer PN"
F 7 "1189-1745-ND" H 5100 1750 50  0001 C CNN "Supplier PN"
F 8 "35PX1000MEFC10X20" H 5100 1750 50  0001 C CNN "ZAlt Manufacturer PN"
	1    5100 1750
	1    0    0    -1  
$EndComp
$Comp
L Device:D_Schottky D14
U 1 1 5D5033BC
P 2150 1900
F 0 "D14" H 2150 1684 50  0000 C CNN
F 1 "MBRS540T3" H 2150 1775 50  0000 C CNN
F 2 "LibreRouter_MegaBoard:SMC" H 2150 1900 50  0001 C CNN
F 3 "~" H 2150 1900 50  0001 C CNN
F 4 "ON Semiconductor" H 2150 1900 50  0001 C CNN "Manufacturer"
F 5 "MBRS540T3G" H 2150 1900 50  0001 C CNN "Manufacturer PN"
F 6 "DigiKey" H 2150 1900 50  0001 C CNN "Supplier"
F 7 "MBRS540T3GOSDKR-ND" H 2150 1900 50  0001 C CNN "Supplier PN"
	1    2150 1900
	-1   0    0    1   
$EndComp
$Comp
L power:GND #PWR0135
U 1 1 5D503417
P 3600 2100
F 0 "#PWR0135" H 3600 1850 50  0001 C CNN
F 1 "GND" H 3605 1927 50  0000 C CNN
F 2 "" H 3600 2100 50  0001 C CNN
F 3 "" H 3600 2100 50  0001 C CNN
	1    3600 2100
	1    0    0    -1  
$EndComp
$Comp
L power:GND #PWR0136
U 1 1 5D50343B
P 4400 2100
F 0 "#PWR0136" H 4400 1850 50  0001 C CNN
F 1 "GND" H 4405 1927 50  0000 C CNN
F 2 "" H 4400 2100 50  0001 C CNN
F 3 "" H 4400 2100 50  0001 C CNN
	1    4400 2100
	1    0    0    -1  
$EndComp
$Comp
L power:GND #PWR0137
U 1 1 5D503458
P 5100 2100
F 0 "#PWR0137" H 5100 1850 50  0001 C CNN
F 1 "GND" H 5105 1927 50  0000 C CNN
F 2 "" H 5100 2100 50  0001 C CNN
F 3 "" H 5100 2100 50  0001 C CNN
	1    5100 2100
	1    0    0    -1  
$EndComp
$Comp
L Device:Polyfuse L1
U 1 1 5D503666
P 4050 1400
F 0 "L1" V 3825 1400 50  0000 C CNN
F 1 "4A, GR30-400" V 3916 1400 50  0000 C CNN
F 2 "LibreRouter_MegaBoard:GR72-135" H 4100 1200 50  0001 L CNN
F 3 "~" H 4050 1400 50  0001 C CNN
F 4 "Littelfuse Inc." H 4050 1400 50  0001 C CNN "Manufacturer"
F 5 "RUEF400-2" H 4050 1400 50  0001 C CNN "Manufacturer PN"
F 6 "DigiKey" H 4050 1400 50  0001 C CNN "Supplier"
F 7 "RUEF400-2HFCT-ND" H 4050 1400 50  0001 C CNN "Supplier PN"
F 8 "GR30-400" H 4050 1400 50  0001 C CNN "ZAlt Manufacturer PN"
	1    4050 1400
	0    1    1    0   
$EndComp
$Comp
L BC301N-D:BC301N-D U?
U 1 1 5D504AD9
P 2850 1750
AR Path="/5D504AD9" Ref="U?"  Part="1" 
AR Path="/5D0328DE/5D504AD9" Ref="V1"  Part="1" 
F 0 "V1" H 3036 1796 50  0000 L CNN
F 1 "BC301N-D" H 3036 1705 50  0000 L CNN
F 2 "LibreRouter_MegaBoard:BC301N-D" H 2850 1750 50  0001 C CNN
F 3 "" H 2850 1750 50  0001 C CNN
F 4 "Bincheng Electronics" H 2850 1750 50  0001 C CNN "Manufacturer"
F 5 "BC301N-D" H 2850 1750 50  0001 C CNN "Manufacturer PN"
	1    2850 1750
	1    0    0    -1  
$EndComp
$Comp
L power:GND #PWR0138
U 1 1 5D505643
P 2850 2100
F 0 "#PWR0138" H 2850 1850 50  0001 C CNN
F 1 "GND" H 2855 1927 50  0000 C CNN
F 2 "" H 2850 2100 50  0001 C CNN
F 3 "" H 2850 2100 50  0001 C CNN
	1    2850 2100
	1    0    0    -1  
$EndComp
Wire Wire Line
	4200 1400 4400 1400
Wire Wire Line
	5100 1400 5100 1600
Wire Wire Line
	4400 1600 4400 1400
Connection ~ 4400 1400
Wire Wire Line
	4400 1400 5100 1400
Wire Wire Line
	5100 2100 5100 1900
Wire Wire Line
	4400 1900 4400 2100
Wire Wire Line
	5100 1400 5350 1400
Connection ~ 5100 1400
Wire Wire Line
	3900 1400 3600 1400
Wire Wire Line
	2850 1400 2850 1500
Connection ~ 2850 1400
Wire Wire Line
	2450 1900 2300 1900
Wire Wire Line
	2450 1400 2850 1400
Wire Wire Line
	2300 1400 2450 1400
Wire Wire Line
	1500 1400 2000 1400
Wire Wire Line
	1500 1900 2000 1900
Wire Wire Line
	2850 2000 2850 2100
Wire Wire Line
	3600 1900 3600 2100
Wire Wire Line
	3600 1600 3600 1400
Connection ~ 3600 1400
Wire Wire Line
	3600 1400 2850 1400
Text Label 5200 1400 0    50   ~ 0
VCC
Text Label 6800 1600 0    50   ~ 0
VCC
Text Label 6800 3300 0    50   ~ 0
VCC
Text Label 6800 5300 0    50   ~ 0
VCC
Text Label 1850 5300 0    50   ~ 0
VCC
Text Label 1850 3300 0    50   ~ 0
VCC
Text HLabel 1500 900  0    50   BiDi ~ 0
POE_B
$Comp
L Device:D_Schottky D26
U 1 1 5E6FC475
P 2150 900
F 0 "D26" H 2150 684 50  0000 C CNN
F 1 "MBRS540T3" H 2150 775 50  0000 C CNN
F 2 "LibreRouter_MegaBoard:SMC" H 2150 900 50  0001 C CNN
F 3 "~" H 2150 900 50  0001 C CNN
F 4 "ON Semiconductor" H 2150 900 50  0001 C CNN "Manufacturer"
F 5 "MBRS540T3G" H 2150 900 50  0001 C CNN "Manufacturer PN"
F 6 "DigiKey" H 2150 900 50  0001 C CNN "Supplier"
F 7 "MBRS540T3GOSDKR-ND" H 2150 900 50  0001 C CNN "Supplier PN"
	1    2150 900 
	-1   0    0    1   
$EndComp
Wire Wire Line
	2300 900  2450 900 
Wire Wire Line
	1500 900  2000 900 
Connection ~ 2450 1400
Wire Wire Line
	2450 1400 2450 1900
Wire Wire Line
	2450 900  2450 1400
$Sheet
S 3300 5150 950  1000
U 5D42CD47
F0 "3.3V_1" 50
F1 "rt7272_dcdc_3v3.sch" 50
F2 "ENABLE" I L 3300 5950 50 
F3 "3.3V" B R 4250 5300 50 
F4 "VCC" B L 3300 5300 50 
$EndSheet
$EndSCHEMATC
